%YAML 1.1
%TAG !u! tag:unity3d.com,2011:
--- !u!74 &7400000
AnimationClip:
  m_ObjectHideFlags: 0
  m_PrefabParentObject: {fileID: 0}
  m_PrefabInternal: {fileID: 0}
  m_Name: Jump
  serializedVersion: 6
  m_Legacy: 0
  m_Compressed: 0
  m_UseHighQualityCurve: 1
  m_RotationCurves: []
  m_CompressedRotationCurves: []
  m_EulerCurves: []
  m_PositionCurves: []
  m_ScaleCurves: []
  m_FloatCurves: []
  m_PPtrCurves:
  - curve:
    - time: 0
      value: {fileID: 21300000, guid: 36d7d617353d82e46b3d9fde2dff5a63, type: 3}
    - time: 0.083333336
      value: {fileID: 21300000, guid: 61fd787755d8bb3449188e1f4510f78c, type: 3}
    - time: 0.16666667
      value: {fileID: 21300000, guid: d6a32618628e01641b3798a949e0cfa0, type: 3}
    - time: 0.25
      value: {fileID: 21300000, guid: cedfaa5e427e8154e9c47b1fdd69ea44, type: 3}
    - time: 0.33333334
      value: {fileID: 21300000, guid: 6ea4b97a5a9d7f34e98e1e3684e4de18, type: 3}
    - time: 0.41666666
      value: {fileID: 21300000, guid: cc5741b4fb81ba6449d0934e74efa1ab, type: 3}
    - time: 0.5
      value: {fileID: 21300000, guid: 78f7e723558e785408ba131365b01aac, type: 3}
    - time: 0.5833333
      value: {fileID: 21300000, guid: c13aea9c73060154c9641ffd426cf253, type: 3}
    - time: 0.6666667
      value: {fileID: 21300000, guid: 4b483c5f181cefb42b265bbd118ffecd, type: 3}
    - time: 0.75
      value: {fileID: 21300000, guid: 0256f67800f8e954fbbe20afae504102, type: 3}
    attribute: m_Sprite
    path: 
    classID: 212
    script: {fileID: 0}
  m_SampleRate: 12
  m_WrapMode: 0
  m_Bounds:
    m_Center: {x: 0, y: 0, z: 0}
    m_Extent: {x: 0, y: 0, z: 0}
  m_ClipBindingConstant:
    genericBindings:
    - serializedVersion: 2
      path: 0
      attribute: 0
      script: {fileID: 0}
      typeID: 212
      customType: 23
      isPPtrCurve: 1
    pptrCurveMapping:
    - {fileID: 21300000, guid: 36d7d617353d82e46b3d9fde2dff5a63, type: 3}
    - {fileID: 21300000, guid: 61fd787755d8bb3449188e1f4510f78c, type: 3}
    - {fileID: 21300000, guid: d6a32618628e01641b3798a949e0cfa0, type: 3}
    - {fileID: 21300000, guid: cedfaa5e427e8154e9c47b1fdd69ea44, type: 3}
    - {fileID: 21300000, guid: 6ea4b97a5a9d7f34e98e1e3684e4de18, type: 3}
    - {fileID: 21300000, guid: cc5741b4fb81ba6449d0934e74efa1ab, type: 3}
    - {fileID: 21300000, guid: 78f7e723558e785408ba131365b01aac, type: 3}
    - {fileID: 21300000, guid: c13aea9c73060154c9641ffd426cf253, type: 3}
    - {fileID: 21300000, guid: 4b483c5f181cefb42b265bbd118ffecd, type: 3}
    - {fileID: 21300000, guid: 0256f67800f8e954fbbe20afae504102, type: 3}
  m_AnimationClipSettings:
    serializedVersion: 2
    m_AdditiveReferencePoseClip: {fileID: 0}
    m_AdditiveReferencePoseTime: 0
    m_StartTime: 0
    m_StopTime: 0.8333333
    m_OrientationOffsetY: 0
    m_Level: 0
    m_CycleOffset: 0
    m_HasAdditiveReferencePose: 0
    m_LoopTime: 0
    m_LoopBlend: 0
    m_LoopBlendOrientation: 0
    m_LoopBlendPositionY: 0
    m_LoopBlendPositionXZ: 0
    m_KeepOriginalOrientation: 0
    m_KeepOriginalPositionY: 1
    m_KeepOriginalPositionXZ: 0
    m_HeightFromFeet: 0
    m_Mirror: 0
  m_EditorCurves: []
  m_EulerEditorCurves: []
  m_HasGenericRootTransform: 0
  m_HasMotionFloatCurves: 0
  m_GenerateMotionCurves: 0
  m_Events: []
